{"page":1,"pages":11639,"perpage":100,"total":"1163838","photo":[{"id":"8464839248","owner":"37708438@N05","secret":"2e0144a7a4","server":"8371","farm":9,"title":"FOG LIGHTS","ispublic":1,"isfriend":0,"isfamily":0},{"id":"5333228022","owner":"23548413@N00","secret":"088660af60","server":"5010","farm":6,"title":"Two  Tree Fog","ispublic":1,"isfriend":0,"isfamily":0,"o_width":"1024","o_height":"769","url_o":"https:\/\/live.staticflickr.com\/5010\/5333228022_056fbbb93d_o.jpg","height_o":769,"width_o":1024},{"id":"22985935996","owner":"58163091@N05","secret":"30ba0d62f6","server":"717","farm":1,"title":"Fog light Trees.","ispublic":1,"isfriend":0,"isfamily":0,"o_width":"3635","o_height":"2436","url_o":"https:\/\/live.staticflickr.com\/717\/22985935996_bb11dd9629_o.jpg","height_o":2436,"width_o":3635},{"id":"15941192740","owner":"127169704@N02","secret":"34b13cc9d8","server":"7536","farm":8,"title":"fog","ispublic":1,"isfriend":0,"isfamily":0,"url_o":"https:\/\/live.staticflickr.com\/7536\/15941192740_6dbfbfc13d_o.jpg","height_o":3632,"width_o":5456},{"id":"16098946916","owner":"16445066@N00","secret":"b4ea1abb52","server":"7552","farm":8,"title":"Fog","ispublic":1,"isfriend":0,"isfamily":0},{"id":"16072712102","owner":"16204926@N08","secret":"96dd16e2e7","server":"7573","farm":8,"title":"Fogged morning","ispublic":1,"isfriend":0,"isfamily":0,"url_o":"https:\/\/live.staticflickr.com\/7573\/16072712102_72722f42d6_o.jpg","height_o":1536,"width_o":2310},{"id":"5041670536","owner":"37523654@N04","secret":"41200dc548","server":"4152","farm":5,"title":"It's a New Day","ispublic":1,"isfriend":0,"isfamily":0,"url_o":"https:\/\/live.staticflickr.com\/4152\/5041670536_61be89d1a8_o.jpg","height_o":2154,"width_o":2155},{"id":"2551439028","owner":"23976667@N07","secret":"2c66493429","server":"3012","farm":4,"title":"Morning Fog","ispublic":1,"isfriend":0,"isfamily":0},{"id":"24765696209","owner":"98179361@N03","secret":"ce1ab5b161","server":"1485","farm":2,"title":"Morning-Fog-3","ispublic":1,"isfriend":0,"isfamily":0,"url_o":"https:\/\/live.staticflickr.com\/1485\/24765696209_a02d0d2828_o.jpg","height_o":3133,"width_o":4730},{"id":"3215224437","owner":"90329050@N00","secret":"6e89d7226e","server":"3102","farm":4,"title":"La collina","ispublic":1,"isfriend":0,"isfamily":0},{"id":"10979950445","owner":"37067630@N00","secret":"e7a356e4cc","server":"5518","farm":6,"title":"Freezing fog","ispublic":1,"isfriend":0,"isfamily":0},{"id":"5342862808","owner":"33416825@N00","secret":"2c4b35d413","server":"5170","farm":6,"title":"- yesterday -","ispublic":1,"isfriend":0,"isfamily":0},{"id":"16259432721","owner":"111778568@N06","secret":"903fc243df","server":"8579","farm":9,"title":"In a Fog","ispublic":1,"isfriend":0,"isfamily":0},{"id":"16513413908","owner":"105003790@N03","secret":"a34a45ebb7","server":"8573","farm":9,"title":"IMG_2627-1112345sl12","ispublic":1,"isfriend":0,"isfamily":0,"url_o":"https:\/\/live.staticflickr.com\/8573\/16513413908_552e3e3a58_o.jpg","height_o":2946,"width_o":4414},{"id":"6453726117","owner":"61555918@N02","secret":"58bc5bac66","server":"7010","farm":8,"title":"Fog Rolls In","ispublic":1,"isfriend":0,"isfamily":0},{"id":"11195157335","owner":"92907873@N04","secret":"ef65c96aff","server":"3703","farm":4,"title":"DB3T0831.jpg","ispublic":1,"isfriend":0,"isfamily":0},{"id":"11277756554","owner":"63109590@N03","secret":"8cdc389ef4","server":"7328","farm":8,"title":"Fog","ispublic":1,"isfriend":0,"isfamily":0},{"id":"16055924781","owner":"57075371@N02","secret":"cc8ecd91dd","server":"8652","farm":9,"title":"","ispublic":1,"isfriend":0,"isfamily":0,"url_o":"https:\/\/live.staticflickr.com\/8652\/16055924781_0a6610b088_o.jpg","height_o":640,"width_o":960},{"id":"8013646787","owner":"81424217@N00","secret":"7bb9841346","server":"8031","farm":9,"title":"Fog N\u00ba 21","ispublic":1,"isfriend":0,"isfamily":0},{"id":"11311985585","owner":"42201095@N03","secret":"52dd960283","server":"2827","farm":3,"title":"Fog","ispublic":1,"isfriend":0,"isfamily":0,"o_width":"1024","o_height":"752","url_o":"https:\/\/live.staticflickr.com\/2827\/11311985585_b3ab03558f_o.jpg","height_o":752,"width_o":1024},{"id":"12027848186","owner":"63080058@N04","secret":"22ab8c5a22","server":"5515","farm":6,"title":"Fog in a landscape","ispublic":1,"isfriend":0,"isfamily":0},{"id":"5240974309","owner":"29572786@N08","secret":"e16547ce2b","server":"5082","farm":6,"title":"Fog Bokeh","ispublic":1,"isfriend":0,"isfamily":0},{"id":"11575456935","owner":"61626776@N03","secret":"4e18353625","server":"7350","farm":8,"title":"Fog, Tuscany","ispublic":1,"isfriend":0,"isfamily":0,"o_width":"800","o_height":"534","url_o":"https:\/\/live.staticflickr.com\/7350\/11575456935_43a5476f7a_o.jpg","height_o":534,"width_o":800},{"id":"12618826374","owner":"37065582@N06","secret":"465df414d2","server":"3696","farm":4,"title":"fog","ispublic":1,"isfriend":0,"isfamily":0,"url_o":"https:\/\/live.staticflickr.com\/3696\/12618826374_a4d6f6ca07_o.jpg","height_o":1505,"width_o":2000},{"id":"16039341857","owner":"125439606@N05","secret":"024004b452","server":"8581","farm":9,"title":"fog morning \u6668\u9727","ispublic":1,"isfriend":0,"isfamily":0},{"id":"3301910178","owner":"25631101@N07","secret":"c5f07ecb53","server":"3462","farm":4,"title":"Royal fog","ispublic":1,"isfriend":0,"isfamily":0,"url_o":"https:\/\/live.staticflickr.com\/3462\/3301910178_4b90ebd28e_o.jpg","height_o":2993,"width_o":2993},{"id":"15156771468","owner":"19685823@N00","secret":"020a296934","server":"3835","farm":4,"title":"ticino fog situation","ispublic":1,"isfriend":0,"isfamily":0},{"id":"8948625542","owner":"40421323@N00","secret":"d62746f5fd","server":"5457","farm":6,"title":"Bifurcated","ispublic":1,"isfriend":0,"isfamily":0},{"id":"13501437943","owner":"118041189@N03","secret":"266913945a","server":"3781","farm":4,"title":"Gates & Fog","ispublic":1,"isfriend":0,"isfamily":0},{"id":"6371627939","owner":"7184906@N06","secret":"6a458e1656","server":"6237","farm":7,"title":"","ispublic":1,"isfriend":0,"isfamily":0},{"id":"16369920430","owner":"69148745@N02","secret":"fd74d89baf","server":"7318","farm":8,"title":"fog","ispublic":1,"isfriend":0,"isfamily":0},{"id":"6375258425","owner":"48759603@N00","secret":"b75ee2c31e","server":"6109","farm":7,"title":"London Fog","ispublic":1,"isfriend":0,"isfamily":0},{"id":"33070923936","owner":"13472501@N08","secret":"45c02a0248","server":"3682","farm":4,"title":"Into the fog","ispublic":1,"isfriend":0,"isfamily":0},{"id":"26508432641","owner":"131011554@N03","secret":"c9a49d18a5","server":"1510","farm":2,"title":"Fog Expected","ispublic":1,"isfriend":0,"isfamily":0},{"id":"10480104515","owner":"95207445@N03","secret":"d70c3487f2","server":"3714","farm":4,"title":"fog","ispublic":1,"isfriend":0,"isfamily":0},{"id":"8209555614","owner":"28228109@N00","secret":"b7dc3631bf","server":"8201","farm":9,"title":"November Fog - Landscape","ispublic":1,"isfriend":0,"isfamily":0,"url_o":"https:\/\/live.staticflickr.com\/8201\/8209555614_e04681eae5_o.jpg","height_o":776,"width_o":1630},{"id":"16617913096","owner":"58871394@N08","secret":"0ff943fea6","server":"8630","farm":9,"title":"Splashes of fog","ispublic":1,"isfriend":0,"isfamily":0,"url_o":"https:\/\/live.staticflickr.com\/8630\/16617913096_855166c0ee_o.jpg","height_o":675,"width_o":1200},{"id":"23700579926","owner":"17544167@N04","secret":"9b8870ef10","server":"756","farm":1,"title":"into the fog","ispublic":1,"isfriend":0,"isfamily":0,"o_width":"1000","o_height":"775","url_o":"https:\/\/live.staticflickr.com\/756\/23700579926_f7c64a488e_o.jpg","height_o":775,"width_o":1000},{"id":"6524859357","owner":"30493186@N03","secret":"3f63aeb31a","server":"7155","farm":8,"title":"Fog","ispublic":1,"isfriend":0,"isfamily":0,"o_width":"999","o_height":"593","url_o":"https:\/\/live.staticflickr.com\/7155\/6524859357_a60e237c0a_o.jpg","height_o":593,"width_o":999},{"id":"8420017506","owner":"63348497@N00","secret":"1efc7f4afa","server":"8186","farm":9,"title":"All Fogged Up","ispublic":1,"isfriend":0,"isfamily":0,"o_width":"2587","o_height":"1789","url_o":"https:\/\/live.staticflickr.com\/8186\/8420017506_8d8280251a_o.jpg","height_o":1789,"width_o":2587},{"id":"12165694883","owner":"64096038@N03","secret":"164c38357b","server":"7457","farm":8,"title":"Golden Light Fog","ispublic":1,"isfriend":0,"isfamily":0},{"id":"8336770901","owner":"40421323@N00","secret":"b7d3171f08","server":"8504","farm":9,"title":"Invierno","ispublic":1,"isfriend":0,"isfamily":0},{"id":"6743544877","owner":"21084470@N00","secret":"ae02d1d141","server":"7028","farm":8,"title":"m\u00e9moire r\u00e9fl\u00e9chie","ispublic":1,"isfriend":0,"isfamily":0},{"id":"15959273602","owner":"7445476@N07","secret":"8c55dfed14","server":"7496","farm":8,"title":"","ispublic":1,"isfriend":0,"isfamily":0},{"id":"15988299834","owner":"127169704@N02","secret":"cc75c36887","server":"8570","farm":9,"title":"Fog","ispublic":1,"isfriend":0,"isfamily":0,"url_o":"https:\/\/live.staticflickr.com\/8570\/15988299834_406476fb78_o.jpg","height_o":1364,"width_o":2048},{"id":"5581253295","owner":"10262366@N06","secret":"e9317b0ddc","server":"5018","farm":6,"title":"Fog","ispublic":1,"isfriend":0,"isfamily":0,"url_o":"https:\/\/live.staticflickr.com\/5018\/5581253295_d5db9d8530_o.jpg","height_o":3864,"width_o":2581},{"id":"14919486574","owner":"69148745@N02","secret":"0f94bedf92","server":"3933","farm":4,"title":"fog","ispublic":1,"isfriend":0,"isfamily":0},{"id":"8008646441","owner":"9374221@N02","secret":"3da54c3eba","server":"8455","farm":9,"title":"Lost in fog","ispublic":1,"isfriend":0,"isfamily":0,"o_width":"1024","o_height":"768","url_o":"https:\/\/live.staticflickr.com\/8455\/8008646441_6f06abd339_o.jpg","height_o":768,"width_o":1024},{"id":"6759369587","owner":"33179950@N02","secret":"8b85144745","server":"7143","farm":8,"title":"Fog'n'Frost","ispublic":1,"isfriend":0,"isfamily":0},{"id":"8446748375","owner":"69148745@N02","secret":"b011774c29","server":"8048","farm":9,"title":"fog","ispublic":1,"isfriend":0,"isfamily":0},{"id":"12549061793","owner":"91060676@N06","secret":"a1e62775a4","server":"7443","farm":8,"title":"Fog","ispublic":1,"isfriend":0,"isfamily":0},{"id":"5805486590","owner":"47959714@N06","secret":"fbc0f6d1ee","server":"5029","farm":6,"title":"Fog..Leica X1","ispublic":1,"isfriend":0,"isfamily":0,"url_o":"https:\/\/live.staticflickr.com\/5029\/5805486590_04fd807ae3_o.jpg","height_o":1024,"width_o":685},{"id":"8281305674","owner":"30388487@N07","secret":"3a65f97486","server":"8213","farm":9,"title":"Poe's muse","ispublic":1,"isfriend":0,"isfamily":0,"url_o":"https:\/\/live.staticflickr.com\/8213\/8281305674_24e95e69ae_o.jpg","height_o":2880,"width_o":3840},{"id":"16220359510","owner":"93857696@N06","secret":"2f7772d850","server":"7286","farm":8,"title":"Fog in WHU","ispublic":1,"isfriend":0,"isfamily":0},{"id":"11368679834","owner":"12011974@N07","secret":"c839a40462","server":"5494","farm":6,"title":"Fog on wheat","ispublic":1,"isfriend":0,"isfamily":0},{"id":"2368386622","owner":"24818630@N08","secret":"30e40139bc","server":"2001","farm":3,"title":"Fog 1","ispublic":1,"isfriend":0,"isfamily":0},{"id":"16642028403","owner":"47748817@N02","secret":"7bd84911e1","server":"7696","farm":8,"title":"fog","ispublic":1,"isfriend":0,"isfamily":0},{"id":"15878713037","owner":"91736083@N07","secret":"3bef538f80","server":"7579","farm":8,"title":"DSC_0258","ispublic":1,"isfriend":0,"isfamily":0,"o_width":"3264","o_height":"4928","url_o":"https:\/\/live.staticflickr.com\/7579\/15878713037_a6e38c37d7_o.jpg","height_o":4928,"width_o":3264},{"id":"16434506440","owner":"7226518@N04","secret":"7d4f4d8213","server":"8652","farm":9,"title":"Intoxicating","ispublic":1,"isfriend":0,"isfamily":0},{"id":"8325785842","owner":"40421323@N00","secret":"b38a8a12c9","server":"8212","farm":9,"title":"Niebla","ispublic":1,"isfriend":0,"isfamily":0},{"id":"11498922315","owner":"22112533@N00","secret":"9574dc2beb","server":"5485","farm":6,"title":"Road Less Taken","ispublic":1,"isfriend":0,"isfamily":0},{"id":"3154074704","owner":"23989608@N00","secret":"b3343aae9c","server":"3099","farm":4,"title":"Shrouded by Fog","ispublic":1,"isfriend":0,"isfamily":0},{"id":"12319935414","owner":"55022112@N06","secret":"840e0216f1","server":"2866","farm":3,"title":"fog","ispublic":1,"isfriend":0,"isfamily":0},{"id":"3075107805","owner":"74244767@N00","secret":"9c66a08dd6","server":"3283","farm":4,"title":"Fog Row","ispublic":1,"isfriend":0,"isfamily":0,"url_o":"https:\/\/live.staticflickr.com\/3283\/3075107805_5a54a28b8d_o.jpg","height_o":884,"width_o":910},{"id":"7088756791","owner":"32686294@N08","secret":"1bef3cc059","server":"7118","farm":8,"title":"Fog matinal","ispublic":1,"isfriend":0,"isfamily":0,"o_width":"800","o_height":"533","url_o":"https:\/\/live.staticflickr.com\/7118\/7088756791_11668c3d32_o.jpg","height_o":533,"width_o":800},{"id":"8263730409","owner":"37280535@N04","secret":"2ac7ac6d7c","server":"8221","farm":9,"title":"Fog and Ice","ispublic":1,"isfriend":0,"isfamily":0,"o_width":"1536","o_height":"1536","url_o":"https:\/\/live.staticflickr.com\/8221\/8263730409_1c1348eb34_o.jpg","height_o":1536,"width_o":1536},{"id":"16426674662","owner":"44049404@N08","secret":"7869e303ff","server":"8580","farm":9,"title":"Walking The Dog","ispublic":1,"isfriend":0,"isfamily":0},{"id":"16130458272","owner":"95921700@N08","secret":"08d8204749","server":"8605","farm":9,"title":"FOG","ispublic":1,"isfriend":0,"isfamily":0,"url_o":"https:\/\/live.staticflickr.com\/8605\/16130458272_1e76268730_o.jpg","height_o":4000,"width_o":6000},{"id":"24087169854","owner":"101214878@N08","secret":"7fc991d752","server":"1585","farm":2,"title":"Fog","ispublic":1,"isfriend":0,"isfamily":0,"url_o":"https:\/\/live.staticflickr.com\/1585\/24087169854_a72189071b_o.jpg","height_o":4676,"width_o":2549},{"id":"11579877305","owner":"21739854@N00","secret":"e10c2e9e73","server":"7377","farm":8,"title":"Punta della Dogana","ispublic":1,"isfriend":0,"isfamily":0,"o_width":"1024","o_height":"683","url_o":"https:\/\/live.staticflickr.com\/7377\/11579877305_5308226c01_o.jpg","height_o":683,"width_o":1024},{"id":"7413509234","owner":"30493186@N03","secret":"b9fa4a865f","server":"7261","farm":8,"title":"Fog \/ Road \/ Cyclist","ispublic":1,"isfriend":0,"isfamily":0,"o_width":"1200","o_height":"750","url_o":"https:\/\/live.staticflickr.com\/7261\/7413509234_a4efaa60c3_o.jpg","height_o":750,"width_o":1200},{"id":"16206982989","owner":"31735567@N08","secret":"8065596fc6","server":"8674","farm":9,"title":"morning fog","ispublic":1,"isfriend":0,"isfamily":0},{"id":"2390143899","owner":"24116213@N08","secret":"d9b0a8de04","server":"3066","farm":4,"title":"Through the fog","ispublic":1,"isfriend":0,"isfamily":0},{"id":"8392170543","owner":"27539414@N08","secret":"0b6e5e4ddf","server":"8336","farm":9,"title":"20121229. Fog. 7553.","ispublic":1,"isfriend":0,"isfamily":0},{"id":"7877264718","owner":"19998427@N06","secret":"d65aeb2e42","server":"8441","farm":9,"title":"Fog in Denali","ispublic":1,"isfriend":0,"isfamily":0},{"id":"8680579538","owner":"64477943@N07","secret":"6e1fba40dd","server":"8387","farm":9,"title":"Into the fog","ispublic":1,"isfriend":0,"isfamily":0},{"id":"8518571007","owner":"55545444@N02","secret":"0d28cbf7c1","server":"8378","farm":9,"title":"Walker","ispublic":1,"isfriend":0,"isfamily":0},{"id":"11293274634","owner":"59670846@N06","secret":"8f31b837aa","server":"2884","farm":3,"title":"FOG...","ispublic":1,"isfriend":0,"isfamily":0},{"id":"11353427016","owner":"96848889@N02","secret":"e36deacc2d","server":"2856","farm":3,"title":"Fog of raw","ispublic":1,"isfriend":0,"isfamily":0,"url_o":"https:\/\/live.staticflickr.com\/2856\/11353427016_2a368e4638_o.jpg","height_o":2592,"width_o":3888},{"id":"23182749834","owner":"98665079@N03","secret":"72046a2f67","server":"5705","farm":6,"title":"Fog","ispublic":1,"isfriend":0,"isfamily":0,"o_width":"6000","o_height":"4000","url_o":"https:\/\/live.staticflickr.com\/5705\/23182749834_8805537945_o.jpg","height_o":4000,"width_o":6000},{"id":"3012321827","owner":"60758160@N00","secret":"afa7855850","server":"3246","farm":4,"title":"Morning fog","ispublic":1,"isfriend":0,"isfamily":0},{"id":"7930520126","owner":"79438817@N02","secret":"7b2d8edee4","server":"8440","farm":9,"title":"Riverbed fog","ispublic":1,"isfriend":0,"isfamily":0,"url_o":"https:\/\/live.staticflickr.com\/8440\/7930520126_ed34865c7e_o.jpg","height_o":1025,"width_o":1198},{"id":"10023666484","owner":"63467978@N02","secret":"0ede502c81","server":"3693","farm":4,"title":"morning fog","ispublic":1,"isfriend":0,"isfamily":0},{"id":"13246677093","owner":"97178374@N07","secret":"78dd23794c","server":"3702","farm":4,"title":"Fog","ispublic":1,"isfriend":0,"isfamily":0},{"id":"15406360182","owner":"51676096@N05","secret":"0ab1037b0d","server":"2950","farm":3,"title":"_MG_4587","ispublic":1,"isfriend":0,"isfamily":0,"o_width":"800","o_height":"545","url_o":"https:\/\/live.staticflickr.com\/2950\/15406360182_3a172b1ee1_o.jpg","height_o":545,"width_o":800},{"id":"7273323384","owner":"69148745@N02","secret":"2c3c18ba02","server":"7230","farm":8,"title":"Fog","ispublic":1,"isfriend":0,"isfamily":0},{"id":"15836299382","owner":"100432722@N05","secret":"0def571ebb","server":"5612","farm":6,"title":"Fog","ispublic":1,"isfriend":0,"isfamily":0},{"id":"13226557384","owner":"47693491@N03","secret":"c4882c1b5c","server":"3795","farm":4,"title":"mehr nebel *Explore*","ispublic":1,"isfriend":0,"isfamily":0},{"id":"11698061126","owner":"37291492@N07","secret":"848f8ae052","server":"7410","farm":8,"title":"sun fog trees","ispublic":1,"isfriend":0,"isfamily":0},{"id":"15557977357","owner":"71001724@N00","secret":"c85955e02a","server":"7494","farm":8,"title":"fog","ispublic":1,"isfriend":0,"isfamily":0},{"id":"2493325029","owner":"24748586@N00","secret":"632c0a8459","server":"2021","farm":3,"title":"sunrise fog.","ispublic":1,"isfriend":0,"isfamily":0,"url_o":"https:\/\/live.staticflickr.com\/2021\/2493325029_0580decb52_o.jpg","height_o":4096,"width_o":6144},{"id":"16138620348","owner":"38733615@N04","secret":"8ed5fcc135","server":"7546","farm":8,"title":"Tracks Into Fog","ispublic":1,"isfriend":0,"isfamily":0},{"id":"27775536145","owner":"93946011@N07","secret":"a6a2d45c4d","server":"7644","farm":8,"title":"morning fog","ispublic":1,"isfriend":0,"isfamily":0},{"id":"15875222492","owner":"94173195@N05","secret":"7299bacc25","server":"7482","farm":8,"title":"Fog in November","ispublic":1,"isfriend":0,"isfamily":0},{"id":"2958505008","owner":"13916789@N06","secret":"87659ca58d","server":"3022","farm":4,"title":"The Pea Souper!","ispublic":1,"isfriend":0,"isfamily":0},{"id":"15734077992","owner":"128460291@N05","secret":"397e5b23f8","server":"7489","farm":8,"title":"Fog","ispublic":1,"isfriend":0,"isfamily":0,"url_o":"https:\/\/live.staticflickr.com\/7489\/15734077992_63f2fb28ac_o.jpg","height_o":4000,"width_o":6000},{"id":"15829428010","owner":"71025477@N00","secret":"7478273a7e","server":"7505","farm":8,"title":"foggy pano","ispublic":1,"isfriend":0,"isfamily":0},{"id":"7273321790","owner":"69148745@N02","secret":"1851636707","server":"7218","farm":8,"title":"Fog","ispublic":1,"isfriend":0,"isfamily":0},{"id":"14996162938","owner":"92398019@N04","secret":"635ef7f1df","server":"5564","farm":6,"title":"Backlit Fog","ispublic":1,"isfriend":0,"isfamily":0,"url_o":"https:\/\/live.staticflickr.com\/5564\/14996162938_eca3e45419_o.jpg","height_o":3477,"width_o":5217}]}