{"page":1,"pages":31826,"perpage":100,"total":"3182532","photo":[{"id":"25696272766","owner":"100087202@N06","secret":"3f126dec36","server":"1529","farm":2,"title":"Chocolate rolada","ispublic":1,"isfriend":0,"isfamily":0},{"id":"30170441370","owner":"94727563@N08","secret":"9fcaf95a15","server":"5743","farm":6,"title":"Chocolate Cake","ispublic":1,"isfriend":0,"isfamily":0},{"id":"39648733142","owner":"123580351@N02","secret":"a9c492b71f","server":"4758","farm":5,"title":"Chocolate","ispublic":1,"isfriend":0,"isfamily":0,"url_o":"https:\/\/live.staticflickr.com\/4758\/39648733142_b095d6b985_o.jpg","height_o":1467,"width_o":2200},{"id":"27766296303","owner":"60757172@N04","secret":"6894bf9e93","server":"8541","farm":9,"title":"Chocolate cake","ispublic":1,"isfriend":0,"isfamily":0},{"id":"30077226160","owner":"66322040@N03","secret":"b08cd0e2d8","server":"5728","farm":6,"title":"Macro Monday - Chocolate Edge","ispublic":1,"isfriend":0,"isfamily":0,"o_width":"14400","o_height":"9035","url_o":"https:\/\/live.staticflickr.com\/5728\/30077226160_e956aa1e69_o.jpg","height_o":9035,"width_o":14400},{"id":"29676626930","owner":"43537433@N02","secret":"aae71e95e2","server":"8488","farm":9,"title":"Chocolate Orange Cake","ispublic":1,"isfriend":0,"isfamily":0,"o_width":"2365","o_height":"1711","url_o":"https:\/\/live.staticflickr.com\/8488\/29676626930_8bb69044cb_o.jpg","height_o":1711,"width_o":2365},{"id":"31132913776","owner":"94727563@N08","secret":"81640e6645","server":"5603","farm":6,"title":"Baked Chocolate Cupcakes","ispublic":1,"isfriend":0,"isfamily":0},{"id":"37853746066","owner":"93371050@N02","secret":"9e7798520c","server":"4506","farm":5,"title":"biscuits au chocolat","ispublic":1,"isfriend":0,"isfamily":0,"o_width":"5184","o_height":"3456","url_o":"https:\/\/live.staticflickr.com\/4506\/37853746066_f83b29b041_o.png","height_o":3456,"width_o":5184},{"id":"7024828887","owner":"31811219@N08","secret":"645b938c06","server":"7183","farm":8,"title":"Chocolate","ispublic":1,"isfriend":0,"isfamily":0},{"id":"26652754501","owner":"90034487@N05","secret":"d4a1f16e26","server":"1688","farm":2,"title":"Chocolate Orange Macarons","ispublic":1,"isfriend":0,"isfamily":0},{"id":"26774797714","owner":"95614272@N04","secret":"c18e3e622e","server":"7347","farm":8,"title":"Chocolate con chocolate","ispublic":1,"isfriend":0,"isfamily":0},{"id":"3404465175","owner":"28575206@N02","secret":"1ee328a4d9","server":"3556","farm":4,"title":"Chocolate Cuppies","ispublic":1,"isfriend":0,"isfamily":0,"url_o":"https:\/\/live.staticflickr.com\/3556\/3404465175_3d898d3db8_o.jpg","height_o":768,"width_o":1024},{"id":"5588439058","owner":"41990516@N08","secret":"63379c8577","server":"5256","farm":6,"title":"Chocolate coffee crinkle","ispublic":1,"isfriend":0,"isfamily":0},{"id":"3674190951","owner":"30591522@N00","secret":"6e978d3688","server":"3606","farm":4,"title":"Hot Chocolate","ispublic":1,"isfriend":0,"isfamily":0,"o_width":"600","o_height":"600","url_o":"https:\/\/live.staticflickr.com\/3606\/3674190951_2eb1028cfc_o.jpg","height_o":600,"width_o":600},{"id":"5119026893","owner":"9198701@N05","secret":"2cc8a2d30d","server":"1386","farm":2,"title":"Double Chocolate Brownies","ispublic":1,"isfriend":0,"isfamily":0,"url_o":"https:\/\/live.staticflickr.com\/1386\/5119026893_0d6fc2fe57_o.jpg","height_o":2448,"width_o":3264},{"id":"34087462144","owner":"146043270@N05","secret":"b6a20cd89a","server":"4202","farm":5,"title":"Wave of chocolate 2","ispublic":1,"isfriend":0,"isfamily":0,"url_o":"https:\/\/live.staticflickr.com\/4202\/34087462144_ea5e65ab2b_o.jpg","height_o":1022,"width_o":1600},{"id":"5453824732","owner":"30127220@N03","secret":"d51b3e1a0a","server":"5219","farm":6,"title":"Hagelslag Chocolate Sprinkles 1","ispublic":1,"isfriend":0,"isfamily":0,"url_o":"https:\/\/live.staticflickr.com\/5219\/5453824732_3495ac31ca_o.jpg","height_o":2572,"width_o":3300},{"id":"44667872615","owner":"11776580@N03","secret":"4e2ea2f521","server":"1957","farm":2,"title":"Trick or Treat - DSC06216P","ispublic":1,"isfriend":0,"isfamily":0},{"id":"33814994960","owner":"38886124@N06","secret":"4f554a39fa","server":"2848","farm":3,"title":"Chocolate Cupcakes","ispublic":1,"isfriend":0,"isfamily":0},{"id":"6811418374","owner":"39675089@N05","secret":"c6f2d0014f","server":"7070","farm":8,"title":"Chocolate Balls-05","ispublic":1,"isfriend":0,"isfamily":0,"url_o":"https:\/\/live.staticflickr.com\/7070\/6811418374_9af98d2ca2_o.jpg","height_o":1333,"width_o":2000},{"id":"3889535898","owner":"15183849@N06","secret":"f539893025","server":"2534","farm":3,"title":"Quadruple Chocolate Cookies","ispublic":1,"isfriend":0,"isfamily":0},{"id":"17558827125","owner":"33097633@N06","secret":"a5e88873af","server":"7741","farm":8,"title":"Chocolate peanut-butter","ispublic":1,"isfriend":0,"isfamily":0,"o_width":"563","o_height":"800","url_o":"https:\/\/live.staticflickr.com\/7741\/17558827125_a05d137263_o.jpg","height_o":800,"width_o":563},{"id":"29941904835","owner":"33929747@N07","secret":"60aa3a96fb","server":"5490","farm":6,"title":"Chocolate","ispublic":1,"isfriend":0,"isfamily":0},{"id":"38470176011","owner":"95614272@N04","secret":"19f5b24aec","server":"4574","farm":5,"title":"mas chocolate","ispublic":1,"isfriend":0,"isfamily":0},{"id":"5523989592","owner":"24065596@N00","secret":"0f29682d25","server":"5053","farm":6,"title":"chocolate mayonnaise cake","ispublic":1,"isfriend":0,"isfamily":0,"o_width":"1500","o_height":"1004","url_o":"https:\/\/live.staticflickr.com\/5053\/5523989592_67c09b1800_o.jpg","height_o":1004,"width_o":1500},{"id":"10688665063","owner":"72060281@N02","secret":"54343dbfcd","server":"3804","farm":4,"title":"chocolate mousse ...","ispublic":1,"isfriend":0,"isfamily":0,"url_o":"https:\/\/live.staticflickr.com\/3804\/10688665063_08727b907f_o.jpg","height_o":809,"width_o":550},{"id":"32454887413","owner":"38886124@N06","secret":"e208da4f50","server":"3894","farm":4,"title":"Chocolate Bliss","ispublic":1,"isfriend":0,"isfamily":0},{"id":"454465968","owner":"66479894@N00","secret":"afd81d1670","server":"241","farm":1,"title":"Chocolate Chocolate Cupcakes.","ispublic":1,"isfriend":0,"isfamily":0,"o_width":"500","o_height":"375","url_o":"https:\/\/live.staticflickr.com\/241\/454465968_6366b1a491_o.jpg","height_o":375,"width_o":500},{"id":"2315798258","owner":"11409649@N07","secret":"1961365721","server":"3155","farm":4,"title":"Chocolate brownie","ispublic":1,"isfriend":0,"isfamily":0,"o_width":"800","o_height":"533","url_o":"https:\/\/live.staticflickr.com\/3155\/2315798258_504a44429c_o.jpg","height_o":533,"width_o":800},{"id":"29193795983","owner":"95614272@N04","secret":"c13ef1c91d","server":"8303","farm":9,"title":"chocolate","ispublic":1,"isfriend":0,"isfamily":0},{"id":"46608759924","owner":"10433743@N06","secret":"fae4c3bd75","server":"7927","farm":8,"title":"Purdys Chocolates","ispublic":1,"isfriend":0,"isfamily":0,"o_width":"3629","o_height":"2419","url_o":"https:\/\/live.staticflickr.com\/7927\/46608759924_9ec6c66d79_o.jpg","height_o":2419,"width_o":3629},{"id":"5058021686","owner":"49555141@N07","secret":"3dd248aee2","server":"4144","farm":5,"title":"Chocolate","ispublic":1,"isfriend":0,"isfamily":0},{"id":"15924603964","owner":"60907792@N06","secret":"a88017fa38","server":"7367","farm":8,"title":"Chocolate Cherry Cake","ispublic":1,"isfriend":0,"isfamily":0,"url_o":"https:\/\/live.staticflickr.com\/7367\/15924603964_79320725f4_o.jpg","height_o":867,"width_o":578},{"id":"15467430764","owner":"84477621@N00","secret":"423263de1a","server":"8677","farm":9,"title":"Chocolates for Christmas!","ispublic":1,"isfriend":0,"isfamily":0},{"id":"45980546525","owner":"44727369@N02","secret":"047d29950d","server":"7881","farm":8,"title":"Chocolate Cake Day.","ispublic":1,"isfriend":0,"isfamily":0,"o_width":"5048","o_height":"3382","url_o":"https:\/\/live.staticflickr.com\/7881\/45980546525_474a67c696_o.jpg","height_o":3382,"width_o":5048},{"id":"25954248746","owner":"71876163@N05","secret":"5f0a65716f","server":"1700","farm":2,"title":"Chocolate...Here today...Gone today!!","ispublic":1,"isfriend":0,"isfamily":0},{"id":"6983671348","owner":"68848372@N02","secret":"bbd712b01b","server":"7052","farm":8,"title":"Chocolate Souffle","ispublic":1,"isfriend":0,"isfamily":0},{"id":"8189990538","owner":"58739058@N07","secret":"e21ef4b7f9","server":"8201","farm":9,"title":"Chocolate","ispublic":1,"isfriend":0,"isfamily":0,"o_width":"665","o_height":"1000","url_o":"https:\/\/live.staticflickr.com\/8201\/8189990538_815fdf70c4_o.jpg","height_o":1000,"width_o":665},{"id":"3369669225","owner":"33915055@N06","secret":"fdca957b49","server":"3467","farm":4,"title":"Chocolate tart","ispublic":1,"isfriend":0,"isfamily":0},{"id":"3513936134","owner":"26215695@N05","secret":"7f928b9738","server":"3368","farm":4,"title":"Chocolate Lava Souffle","ispublic":1,"isfriend":0,"isfamily":0},{"id":"3215398736","owner":"9773604@N03","secret":"98d2029e13","server":"3536","farm":4,"title":"brownie","ispublic":1,"isfriend":0,"isfamily":0,"url_o":"https:\/\/live.staticflickr.com\/3536\/3215398736_f91a6ccfb5_o.jpg","height_o":600,"width_o":800},{"id":"8259176224","owner":"83465228@N02","secret":"790178a42e","server":"8064","farm":9,"title":"Cadburys chocolate","ispublic":1,"isfriend":0,"isfamily":0,"url_o":"https:\/\/live.staticflickr.com\/8064\/8259176224_640876c07e_o.jpg","height_o":800,"width_o":600},{"id":"28699283265","owner":"131573837@N04","secret":"78cc063541","server":"7495","farm":8,"title":"Chocolate Cake, anyone?","ispublic":1,"isfriend":0,"isfamily":0,"o_width":"2500","o_height":"1441","url_o":"https:\/\/live.staticflickr.com\/7495\/28699283265_3cdc03d2bf_o.jpg","height_o":1441,"width_o":2500},{"id":"16250551457","owner":"95288753@N00","secret":"0e9dc6ca2b","server":"7340","farm":8,"title":"Chocolate","ispublic":1,"isfriend":0,"isfamily":0},{"id":"25959082601","owner":"60907792@N06","secret":"39f3de72e4","server":"1702","farm":2,"title":"Chocolate Easter Cake","ispublic":1,"isfriend":0,"isfamily":0,"url_o":"https:\/\/live.staticflickr.com\/1702\/25959082601_5b4b503058_o.jpg","height_o":867,"width_o":578},{"id":"4321378685","owner":"35450327@N08","secret":"9d93596845","server":"4039","farm":5,"title":"chocolate","ispublic":1,"isfriend":0,"isfamily":0,"url_o":"https:\/\/live.staticflickr.com\/4039\/4321378685_961bbf0da3_o.jpg","height_o":3888,"width_o":2592},{"id":"27780324740","owner":"62170839@N07","secret":"30e1a657e1","server":"7337","farm":8,"title":"Mint Chocolate Truffles","ispublic":1,"isfriend":0,"isfamily":0},{"id":"8616315724","owner":"62382074@N06","secret":"3dcee13162","server":"8526","farm":9,"title":"Chocolate cakes","ispublic":1,"isfriend":0,"isfamily":0,"url_o":"https:\/\/live.staticflickr.com\/8526\/8616315724_72b2d9971f_o.jpg","height_o":1000,"width_o":742},{"id":"3428577098","owner":"30154075@N03","secret":"5204101128","server":"3602","farm":4,"title":"Chocolate Cake","ispublic":1,"isfriend":0,"isfamily":0},{"id":"23954569799","owner":"59990117@N04","secret":"47b5ed346e","server":"1680","farm":2,"title":"Chocolate buttons - Macro Monday","ispublic":1,"isfriend":0,"isfamily":0,"o_width":"4128","o_height":"2322","url_o":"https:\/\/live.staticflickr.com\/1680\/23954569799_2f2c689172_o.jpg","height_o":2322,"width_o":4128},{"id":"4404120040","owner":"21502181@N04","secret":"a3dc559a04","server":"2597","farm":3,"title":"Chocolate","ispublic":1,"isfriend":0,"isfamily":0},{"id":"16424018575","owner":"101440531@N06","secret":"0ffb423d61","server":"7417","farm":8,"title":"g_and_b_dark_chocolate_6D1510","ispublic":1,"isfriend":0,"isfamily":0,"o_width":"5472","o_height":"3648","url_o":"https:\/\/live.staticflickr.com\/7417\/16424018575_5319c28cea_o.jpg","height_o":3648,"width_o":5472},{"id":"6931164050","owner":"56174006@N05","secret":"4ffd98d023","server":"7130","farm":8,"title":"Chocolate Chip Cookies :)","ispublic":1,"isfriend":0,"isfamily":0},{"id":"5399199492","owner":"36648582@N06","secret":"f92c261bd9","server":"5020","farm":6,"title":"Chocolate Nutella \"Alfajores\"","ispublic":1,"isfriend":0,"isfamily":0},{"id":"4288654851","owner":"13558861@N08","secret":"d6f810b085","server":"4047","farm":5,"title":"Chocolate [Explored]","ispublic":1,"isfriend":0,"isfamily":0},{"id":"17076059571","owner":"44159356@N04","secret":"ffccfe3e31","server":"7688","farm":8,"title":"Chocolate Cake","ispublic":1,"isfriend":0,"isfamily":0,"o_width":"1000","o_height":"1350","url_o":"https:\/\/live.staticflickr.com\/7688\/17076059571_45c1b3f263_o.jpg","height_o":1350,"width_o":1000},{"id":"6639629537","owner":"58739058@N07","secret":"6ef1083d5c","server":"7001","farm":8,"title":"chocolate muffins","ispublic":1,"isfriend":0,"isfamily":0,"o_width":"532","o_height":"800","url_o":"https:\/\/live.staticflickr.com\/7001\/6639629537_11fab5efa2_o.jpg","height_o":800,"width_o":532},{"id":"23871002659","owner":"138214223@N03","secret":"78320954ed","server":"1484","farm":2,"title":"Chocolate","ispublic":1,"isfriend":0,"isfamily":0,"url_o":"https:\/\/live.staticflickr.com\/1484\/23871002659_906673bbcc_o.jpg","height_o":3574,"width_o":5379},{"id":"37825917792","owner":"93557288@N04","secret":"bdd4623501","server":"4457","farm":5,"title":"Chocolate donuts","ispublic":1,"isfriend":0,"isfamily":0,"url_o":"https:\/\/live.staticflickr.com\/4457\/37825917792_5307408496_o.jpg","height_o":4855,"width_o":3468},{"id":"24633238719","owner":"63321262@N08","secret":"0a8c0c87e7","server":"1455","farm":2,"title":"Chocolate Globe","ispublic":1,"isfriend":0,"isfamily":0,"o_width":"1440","o_height":"1800","url_o":"https:\/\/live.staticflickr.com\/1455\/24633238719_627d7aeeba_o.jpg","height_o":1800,"width_o":1440},{"id":"19591550598","owner":"20644924@N02","secret":"b4ee3fffe0","server":"420","farm":1,"title":"Chocolate Loaf Cake","ispublic":1,"isfriend":0,"isfamily":0},{"id":"14626635782","owner":"65653501@N07","secret":"562a7a94d8","server":"5529","farm":6,"title":"Chocolate Blueberry Cupcake","ispublic":1,"isfriend":0,"isfamily":0},{"id":"6879418289","owner":"58739058@N07","secret":"a0d7ba331f","server":"7039","farm":8,"title":"chocolate souffl\u00e9","ispublic":1,"isfriend":0,"isfamily":0,"o_width":"532","o_height":"800","url_o":"https:\/\/live.staticflickr.com\/7039\/6879418289_fa915458ac_o.jpg","height_o":800,"width_o":532},{"id":"16570992280","owner":"45841435@N03","secret":"56a27f4755","server":"8692","farm":9,"title":"Chocolate Orange Cake","ispublic":1,"isfriend":0,"isfamily":0},{"id":"4294804934","owner":"13151181@N08","secret":"b7e058059c","server":"4064","farm":5,"title":"chocolate tart","ispublic":1,"isfriend":0,"isfamily":0},{"id":"27599161582","owner":"28943471@N08","secret":"39781ee9ef","server":"7348","farm":8,"title":"Flourless Chocolate Cake","ispublic":1,"isfriend":0,"isfamily":0},{"id":"4853284333","owner":"38423963@N03","secret":"893c32399b","server":"4101","farm":5,"title":"Chocolate Flake Cake","ispublic":1,"isfriend":0,"isfamily":0},{"id":"6025914834","owner":"14757313@N07","secret":"843e12d4c7","server":"6189","farm":7,"title":"Chocolate cake","ispublic":1,"isfriend":0,"isfamily":0,"o_width":"1772","o_height":"1181","url_o":"https:\/\/live.staticflickr.com\/6189\/6025914834_87b7b178d5_o.jpg","height_o":1181,"width_o":1772},{"id":"24769837101","owner":"63321262@N08","secret":"fd55b489d0","server":"1665","farm":2,"title":"Chocolate Four Ways","ispublic":1,"isfriend":0,"isfamily":0,"o_width":"1800","o_height":"1200","url_o":"https:\/\/live.staticflickr.com\/1665\/24769837101_638661ab7b_o.jpg","height_o":1200,"width_o":1800},{"id":"7213747616","owner":"58739058@N07","secret":"decb0cd296","server":"7221","farm":8,"title":"chocolate cream with rose sea salt","ispublic":1,"isfriend":0,"isfamily":0,"o_width":"536","o_height":"800","url_o":"https:\/\/live.staticflickr.com\/7221\/7213747616_93c7a23790_o.jpg","height_o":800,"width_o":536},{"id":"32194482254","owner":"68801823@N00","secret":"80e8be6656","server":"2841","farm":3,"title":"So sweet","ispublic":1,"isfriend":0,"isfamily":0,"url_o":"https:\/\/live.staticflickr.com\/2841\/32194482254_ecfb16f36f_o.jpg","height_o":1833,"width_o":2659},{"id":"5039371742","owner":"86119683@N00","secret":"f1c8f7dee2","server":"4145","farm":5,"title":"chocolate macrons","ispublic":1,"isfriend":0,"isfamily":0},{"id":"6796903744","owner":"58739058@N07","secret":"d1c7385506","server":"7185","farm":8,"title":"Chocolate tarts with nuts","ispublic":1,"isfriend":0,"isfamily":0,"o_width":"532","o_height":"800","url_o":"https:\/\/live.staticflickr.com\/7185\/6796903744_d45c06eff9_o.jpg","height_o":800,"width_o":532},{"id":"10993577264","owner":"63993975@N05","secret":"2b9bf2b1dc","server":"3759","farm":4,"title":"Chocolate.","ispublic":1,"isfriend":0,"isfamily":0,"o_width":"4966","o_height":"2793","url_o":"https:\/\/live.staticflickr.com\/3759\/10993577264_31662f79c6_o.jpg","height_o":2793,"width_o":4966},{"id":"5602401358","owner":"7799467@N07","secret":"e70a3dc09a","server":"5303","farm":6,"title":"chocolate ice cream","ispublic":1,"isfriend":0,"isfamily":0,"url_o":"https:\/\/live.staticflickr.com\/5303\/5602401358_5d627d0039_o.jpg","height_o":2336,"width_o":3504},{"id":"6072251048","owner":"58739058@N07","secret":"b203da31fa","server":"6194","farm":7,"title":"chocolate brownie","ispublic":1,"isfriend":0,"isfamily":0,"o_width":"531","o_height":"800","url_o":"https:\/\/live.staticflickr.com\/6194\/6072251048_fe02964a88_o.jpg","height_o":800,"width_o":531},{"id":"16429403085","owner":"22269025@N07","secret":"1729af3c70","server":"8584","farm":9,"title":"Chocolate Fudge","ispublic":1,"isfriend":0,"isfamily":0},{"id":"15387156307","owner":"60907792@N06","secret":"9455e0b77a","server":"5601","farm":6,"title":"Chocolate Macarons","ispublic":1,"isfriend":0,"isfamily":0,"url_o":"https:\/\/live.staticflickr.com\/5601\/15387156307_e42825b71e_o.jpg","height_o":867,"width_o":578},{"id":"6503665965","owner":"58739058@N07","secret":"cf867c2eb6","server":"7146","farm":8,"title":"Chocolate muffins","ispublic":1,"isfriend":0,"isfamily":0,"o_width":"532","o_height":"800","url_o":"https:\/\/live.staticflickr.com\/7146\/6503665965_14f9405e5f_o.jpg","height_o":800,"width_o":532},{"id":"16233358917","owner":"14676659@N08","secret":"eb22488afa","server":"7392","farm":8,"title":"MACRO MONDAYS....'CHOCOLATE'","ispublic":1,"isfriend":0,"isfamily":0,"o_width":"2174","o_height":"1448","url_o":"https:\/\/live.staticflickr.com\/7392\/16233358917_161dc95ccd_o.jpg","height_o":1448,"width_o":2174},{"id":"28993974365","owner":"59024718@N04","secret":"9426fd1085","server":"8818","farm":9,"title":"hot chocolate","ispublic":1,"isfriend":0,"isfamily":0},{"id":"2979526364","owner":"23386527@N06","secret":"b40af6aaa8","server":"3139","farm":4,"title":"chocolate and pistachio mousse cakes","ispublic":1,"isfriend":0,"isfamily":0},{"id":"26499678925","owner":"95176072@N02","secret":"3bdf607d22","server":"1531","farm":2,"title":"Chocolate cup tiramisu","ispublic":1,"isfriend":0,"isfamily":0,"o_width":"5243","o_height":"3499","url_o":"https:\/\/live.staticflickr.com\/1531\/26499678925_be33e404b1_o.jpg","height_o":3499,"width_o":5243},{"id":"31605958816","owner":"41383694@N00","secret":"4d4771ae8f","server":"334","farm":1,"title":"Chocolate Quartet Cookies","ispublic":1,"isfriend":0,"isfamily":0,"o_width":"600","o_height":"800","url_o":"https:\/\/live.staticflickr.com\/334\/31605958816_5b6bc3549b_o.jpg","height_o":800,"width_o":600},{"id":"2267423039","owner":"23431014@N05","secret":"634b50ac3e","server":"2122","farm":3,"title":"Chocolate Espresso Cookies","ispublic":1,"isfriend":0,"isfamily":0},{"id":"3402216732","owner":"14991743@N00","secret":"cea27fa79d","server":"3582","farm":4,"title":"Chocolate Frosted Drunken Cupcakes 5","ispublic":1,"isfriend":0,"isfamily":0,"url_o":"https:\/\/live.staticflickr.com\/3582\/3402216732_b1acc1e857_o.jpg","height_o":2592,"width_o":3888},{"id":"16977227232","owner":"39611512@N02","secret":"2831739b63","server":"7589","farm":8,"title":"Chocolate Frosted Brownie","ispublic":1,"isfriend":0,"isfamily":0,"o_width":"1024","o_height":"770","url_o":"https:\/\/live.staticflickr.com\/7589\/16977227232_7776ace658_o.jpg","height_o":770,"width_o":1024},{"id":"3499642618","owner":"21252681@N07","secret":"7d7547f605","server":"3572","farm":4,"title":"5\" chocolate peanut butter cheesecake deluxe","ispublic":1,"isfriend":0,"isfamily":0,"url_o":"https:\/\/live.staticflickr.com\/3572\/3499642618_07f0f31aa0_o.jpg","height_o":1200,"width_o":1600},{"id":"6159334562","owner":"14757313@N07","secret":"9d747aed49","server":"6181","farm":7,"title":"Chocolate cake","ispublic":1,"isfriend":0,"isfamily":0,"o_width":"1772","o_height":"1202","url_o":"https:\/\/live.staticflickr.com\/6181\/6159334562_f7f30543f6_o.jpg","height_o":1202,"width_o":1772},{"id":"15665336060","owner":"92715626@N05","secret":"995e31fa04","server":"7559","farm":8,"title":"Chocolate doesn't judge , chocolate just understands","ispublic":1,"isfriend":0,"isfamily":0},{"id":"2420590251","owner":"65365639@N00","secret":"f887c56ff0","server":"3050","farm":4,"title":"Chocolate....","ispublic":1,"isfriend":0,"isfamily":0},{"id":"23336456554","owner":"60907792@N06","secret":"d0e0e15f3c","server":"5671","farm":6,"title":"Chocolate Crazy Cake","ispublic":1,"isfriend":0,"isfamily":0,"url_o":"https:\/\/live.staticflickr.com\/5671\/23336456554_40ee6c04e8_o.jpg","height_o":871,"width_o":578},{"id":"6535973195","owner":"58739058@N07","secret":"3aee56ac56","server":"7146","farm":8,"title":"chocolate cake","ispublic":1,"isfriend":0,"isfamily":0,"o_width":"532","o_height":"800","url_o":"https:\/\/live.staticflickr.com\/7146\/6535973195_d01521710b_o.jpg","height_o":800,"width_o":532},{"id":"6842923572","owner":"58739058@N07","secret":"c6dc13c0b3","server":"7061","farm":8,"title":"Chocolate muffins with berries","ispublic":1,"isfriend":0,"isfamily":0,"o_width":"521","o_height":"800","url_o":"https:\/\/live.staticflickr.com\/7061\/6842923572_18cf6630df_o.jpg","height_o":800,"width_o":521},{"id":"6023896826","owner":"24730273@N03","secret":"af3171c86c","server":"6068","farm":7,"title":"Chocolate cupcake postcard","ispublic":1,"isfriend":0,"isfamily":0,"o_width":"1224","o_height":"1625","url_o":"https:\/\/live.staticflickr.com\/6068\/6023896826_4fb46e6f08_o.jpg","height_o":1625,"width_o":1224},{"id":"16405910866","owner":"92933242@N07","secret":"c02e9d400e","server":"8620","farm":9,"title":"CHOCOLATE. MACROMONDAYS.","ispublic":1,"isfriend":0,"isfamily":0},{"id":"2878972214","owner":"27925997@N02","secret":"852d3e6b25","server":"3061","farm":4,"title":"N u m m y","ispublic":1,"isfriend":0,"isfamily":0},{"id":"9817620146","owner":"51322730@N06","secret":"b8df330b80","server":"7387","farm":8,"title":"chocolate","ispublic":1,"isfriend":0,"isfamily":0,"url_o":"https:\/\/live.staticflickr.com\/7387\/9817620146_a5ef9b3e48_o.jpg","height_o":3968,"width_o":4464},{"id":"8232767276","owner":"20644924@N02","secret":"b49a0904c7","server":"8067","farm":9,"title":"Chocolate Cherry Cakes","ispublic":1,"isfriend":0,"isfamily":0},{"id":"31933293250","owner":"101440531@N06","secret":"50092d45f1","server":"568","farm":1,"title":"chocolate_overload_5Div0763","ispublic":1,"isfriend":0,"isfamily":0,"o_width":"6720","o_height":"4480","url_o":"https:\/\/live.staticflickr.com\/568\/31933293250_eaa1486c3d_o.jpg","height_o":4480,"width_o":6720}]}